final sample exam/simulation/qsim/divider.msim.vcd
$comment
	File created using the following command:
		vcd file divider.msim.vcd -direction
$end
$date
	Mon Nov 19 00:08:25 2018
$end
$version
	ModelSim Version 10.1d
$end
$timescale
	1ps
$end
$scope module divider_vlg_vec_tst $end
$var reg 8 ! A [7:0] $end
$var reg 1 " clk $end
$var reg 1 # rst $end
$var reg 1 $ s $end
$var wire 1 % Div3 $end
$var wire 1 & Done $end
$var wire 1 ' R [7] $end
$var wire 1 ( R [6] $end
$var wire 1 ) R [5] $end
$var wire 1 * R [4] $end
$var wire 1 + R [3] $end
$var wire 1 , R [2] $end
$var wire 1 - R [1] $end
$var wire 1 . R [0] $end
$var wire 1 / sampler $end
$scope module i1 $end
$var wire 1 0 gnd $end
$var wire 1 1 vcc $end
$var wire 1 2 unknown $end
$var tri1 1 3 devclrn $end
$var tri1 1 4 devpor $end
$var tri1 1 5 devoe $end
$var wire 1 6 s~combout $end
$var wire 1 7 clk~combout $end
$var wire 1 8 clk~clkctrl_outclk $end
$var wire 1 9 Ain[0]~8_combout $end
$var wire 1 : rst~combout $end
$var wire 1 ; curr.Q1~regout $end
$var wire 1 < Selector1~0_combout $end
$var wire 1 = Ain[0]~9 $end
$var wire 1 > Ain[1]~11_combout $end
$var wire 1 ? Ain[0]~10_combout $end
$var wire 1 @ LessThan0~4_combout $end
$var wire 1 A Ain[1]~12 $end
$var wire 1 B Ain[2]~13_combout $end
$var wire 1 C Ain[2]~14 $end
$var wire 1 D Ain[3]~16 $end
$var wire 1 E Ain[4]~17_combout $end
$var wire 1 F Ain[4]~18 $end
$var wire 1 G Ain[5]~19_combout $end
$var wire 1 H Div3~0_combout $end
$var wire 1 I Selector1~1_combout $end
$var wire 1 J nex.Q2~0_combout $end
$var wire 1 K curr.Q2~regout $end
$var wire 1 L nex.Q1~0_combout $end
$var wire 1 M Ain[3]~15_combout $end
$var wire 1 N Ain[5]~20 $end
$var wire 1 O Ain[6]~21_combout $end
$var wire 1 P Ain[6]~22 $end
$var wire 1 Q Ain[7]~23_combout $end
$var wire 1 R nex.Q3~1_combout $end
$var wire 1 S Div3~1_combout $end
$var wire 1 T LessThan0~5_combout $end
$var wire 1 U nex.Q3~0_combout $end
$var wire 1 V nex.Q3~2_combout $end
$var wire 1 W Div3~2_combout $end
$var wire 1 X Div3~3_combout $end
$var wire 1 Y Ain [7] $end
$var wire 1 Z Ain [6] $end
$var wire 1 [ Ain [5] $end
$var wire 1 \ Ain [4] $end
$var wire 1 ] Ain [3] $end
$var wire 1 ^ Ain [2] $end
$var wire 1 _ Ain [1] $end
$var wire 1 ` Ain [0] $end
$var wire 1 a A~combout [7] $end
$var wire 1 b A~combout [6] $end
$var wire 1 c A~combout [5] $end
$var wire 1 d A~combout [4] $end
$var wire 1 e A~combout [3] $end
$var wire 1 f A~combout [2] $end
$var wire 1 g A~combout [1] $end
$var wire 1 h A~combout [0] $end
$upscope $end
$upscope $end
$enddefinitions $end
#0
$dumpvars
b0 !
0"
1#
0$
0%
0&
0.
0-
0,
0+
0*
0)
0(
0'
x/
00
11
x2
13
14
15
06
07
08
19
1:
0;
0<
0=
0>
1?
0@
1A
1B
0C
1D
1E
0F
1G
1H
0I
0J
0K
0L
1M
1N
1O
0P
1Q
0R
1S
0T
0U
0V
1W
0X
0`
0_
0^
0]
0\
0[
0Z
0Y
0h
0g
0f
0e
0d
0c
0b
0a
$end
#500
1"
17
18
0/
#1000
0#
0"
0:
07
08
1/
#1500
1"
17
18
0/
#2000
1#
0"
1:
07
08
1/
#2500
1"
17
18
0/
#3000
b100 !
b110 !
0"
1g
1f
07
08
1/
#3500
1"
17
18
0/
1^
1_
0H
1C
0B
0W
1>
1,
1-
1T
0D
0M
1F
0E
0N
0G
1P
0O
0Q
#4000
1$
0"
16
07
08
1/
1R
1L
0?
1<
1I
1J
1?
#4500
1"
17
18
0/
1`
1K
0^
1;
1@
1=
09
1H
0C
1B
1.
0,
0A
0>
1D
1M
1C
0B
0F
1E
0D
0M
1N
1G
1F
0E
0P
1O
0N
0G
1Q
1P
0O
0Q
#5000
0"
07
08
1/
#5500
1"
17
18
0/
0`
0_
1W
0T
0@
0=
19
1A
1>
0.
0-
1X
1V
0I
0>
0C
1B
0J
0?
1D
1M
1%
1&
0F
1E
1N
1G
0P
1O
1Q
#6000
0"
07
08
1/
#6500
1"
17
18
0/
0K
1U
0<
#7000
0"
07
08
1/
#7500
1"
17
18
0/
#8000
0$
0"
06
07
08
1/
0U
0R
0L
1?
0X
0V
0%
0&
#8500
1"
17
18
0/
1^
1_
0;
0H
1C
0B
0W
1>
1,
1-
1T
0D
0M
1F
0E
0N
0G
1P
0O
0Q
#9000
b1110 !
b1010 !
0"
0f
1e
07
08
1/
#9500
1"
17
18
0/
1]
0^
1M
0C
1B
1+
0,
0M
#10000
1$
0"
16
07
08
1/
1R
1L
0?
1<
1I
1J
1?
#10500
1"
17
18
0/
0]
1`
1K
1^
1;
1D
1M
1@
1=
09
1C
0B
0+
1.
1,
0F
1E
0A
0>
0D
0M
1N
1G
1B
1F
0E
0P
1O
0N
0G
1Q
1P
0O
0Q
#11000
0"
07
08
1/
#11500
1"
17
18
0/
0`
0_
0@
0=
19
1A
1>
0.
0-
0>
0B
#12000
0"
07
08
1/
#12500
1"
17
18
0/
1`
0^
1=
09
1H
0C
1B
1.
0,
1>
0T
0I
1D
1M
1V
0J
0?
0F
1E
1N
1G
1&
0P
1O
1Q
#13000
0$
0"
06
07
08
1/
#13500
1"
17
18
0/
0K
0R
0L
1?
0<
0V
0&
#14000
0"
07
08
1/
#14500
1"
17
18
0/
1]
0`
1_
0;
0H
0D
0M
0=
19
0A
0>
1+
0.
1-
1T
1F
0E
1A
1>
1C
0B
0N
0G
0C
1B
1M
1P
0O
0M
0Q
#15000
0"
07
08
1/
#15500
1"
17
18
0/
#16000
b10 !
0"
0e
07
08
1/
#16500
1"
17
18
0/
0]
1H
1D
1M
0+
0T
0F
1E
1N
1G
0P
1O
1Q
#17000
0"
07
08
1/
#17500
1"
17
18
0/
#18000
1$
0"
16
07
08
1/
1R
1L
0?
1<
1V
1&
#18500
1"
17
18
0/
1;
1U
0<
#19000
0"
07
08
1/
#19500
1"
17
18
0/
#20000
0$
0"
06
07
08
1/
0U
0R
0L
1?
0V
0&
#20500
1"
17
18
0/
0;
#21000
0"
07
08
1/
#21500
1"
17
18
0/
#22000
b0 !
0"
0g
07
08
1/
#22500
1"
17
18
0/
0_
1W
0>
0-
#23000
0"
07
08
1/
#23500
1"
17
18
0/
#24000
1$
0"
16
07
08
1/
1R
1L
0?
1<
1X
1V
1%
1&
#24500
1"
17
18
0/
1;
1U
0<
#25000
0"
07
08
1/
#25500
1"
17
18
0/
#26000
0"
07
08
1/
#26500
1"
17
18
0/
#27000
0$
0"
06
07
08
1/
0U
0R
0L
1?
0X
0V
0%
0&
#27500
1"
17
18
0/
0;
