final sample exam/simulation/qsim/divider.msim.vcd
$comment
	File created using the following command:
		vcd file divider.msim.vcd -direction
$end
$date
	Sat Nov 17 13:45:43 2018
$end
$version
	ModelSim Version 10.1d
$end
$timescale
	1ps
$end
$scope module divider_vlg_vec_tst $end
$var reg 8 ! A [7:0] $end
$var reg 1 " clk $end
$var reg 1 # rst $end
$var reg 1 $ s $end
$var wire 1 % Div3 $end
$var wire 1 & Done $end
$var wire 1 ' R [7] $end
$var wire 1 ( R [6] $end
$var wire 1 ) R [5] $end
$var wire 1 * R [4] $end
$var wire 1 + R [3] $end
$var wire 1 , R [2] $end
$var wire 1 - R [1] $end
$var wire 1 . R [0] $end
$var wire 1 / sampler $end
$scope module i1 $end
$var wire 1 0 gnd $end
$var wire 1 1 vcc $end
$var wire 1 2 unknown $end
$var tri1 1 3 devclrn $end
$var tri1 1 4 devpor $end
$var tri1 1 5 devoe $end
$var wire 1 6 nex.Q2~0_combout $end
$var wire 1 7 nex.Q3~0_combout $end
$var wire 1 8 clk~combout $end
$var wire 1 9 clk~clkctrl_outclk $end
$var wire 1 : Ain[0]~8_combout $end
$var wire 1 ; s~combout $end
$var wire 1 < rst~combout $end
$var wire 1 = nex.Q1~0_combout $end
$var wire 1 > curr.Q1~regout $end
$var wire 1 ? Ain[0]~9 $end
$var wire 1 @ Ain[1]~11_combout $end
$var wire 1 A Ain[1]~12 $end
$var wire 1 B Ain[2]~13_combout $end
$var wire 1 C Ain[2]~14 $end
$var wire 1 D Ain[3]~16 $end
$var wire 1 E Ain[4]~17_combout $end
$var wire 1 F Ain[4]~18 $end
$var wire 1 G Ain[5]~19_combout $end
$var wire 1 H Selector3~0_combout $end
$var wire 1 I Ain[5]~20 $end
$var wire 1 J Ain[6]~21_combout $end
$var wire 1 K Ain[6]~22 $end
$var wire 1 L Ain[7]~23_combout $end
$var wire 1 M Selector3~1_combout $end
$var wire 1 N LessThan0~0_combout $end
$var wire 1 O nex.Q2~1_combout $end
$var wire 1 P curr.Q2~regout $end
$var wire 1 Q Ain[0]~10_combout $end
$var wire 1 R Ain[3]~15_combout $end
$var wire 1 S nex.Q3~1_combout $end
$var wire 1 T curr.Q3~regout $end
$var wire 1 U Done$latch~combout $end
$var wire 1 V Selector3~2_combout $end
$var wire 1 W Selector3~3_combout $end
$var wire 1 X Div3$latch~combout $end
$var wire 1 Y Ain [7] $end
$var wire 1 Z Ain [6] $end
$var wire 1 [ Ain [5] $end
$var wire 1 \ Ain [4] $end
$var wire 1 ] Ain [3] $end
$var wire 1 ^ Ain [2] $end
$var wire 1 _ Ain [1] $end
$var wire 1 ` Ain [0] $end
$var wire 1 a A~combout [7] $end
$var wire 1 b A~combout [6] $end
$var wire 1 c A~combout [5] $end
$var wire 1 d A~combout [4] $end
$var wire 1 e A~combout [3] $end
$var wire 1 f A~combout [2] $end
$var wire 1 g A~combout [1] $end
$var wire 1 h A~combout [0] $end
$upscope $end
$upscope $end
$enddefinitions $end
#0
$dumpvars
b0 !
0"
1#
0$
0%
0&
0.
0-
0,
0+
0*
0)
0(
0'
x/
00
11
x2
13
14
15
06
07
08
09
1:
0;
1<
0=
0>
0?
0@
1A
1B
0C
1D
1E
0F
1G
1H
1I
1J
0K
1L
1M
0N
0O
0P
1Q
1R
0S
0T
0U
0V
1W
0X
0`
0_
0^
0]
0\
0[
0Z
0Y
0h
0g
0f
0e
0d
0c
0b
0a
$end
#500
1"
18
19
0/
#1000
0#
0"
0<
08
09
1/
#1500
1"
18
19
0/
#2000
1#
0"
1<
08
09
1/
#2500
1"
18
19
0/
#3000
b100 !
b110 !
0"
1g
1f
08
09
1/
#3500
1"
18
19
0/
1^
1_
0H
1C
0B
1@
1,
1-
1N
0D
0R
1F
0E
0I
0G
1K
0J
0L
#4000
1$
0"
1;
08
09
1/
1=
16
1O
#4500
1"
18
19
0/
1>
1P
0W
06
#5000
0"
08
09
1/
#5500
1"
18
19
0/
0^
1`
1H
0C
1B
1?
0:
0,
1.
1D
1R
0A
0@
0F
1E
1C
0B
1I
1G
0D
0R
0K
1J
1F
0E
1L
0I
0G
1K
0J
0L
#6000
0"
08
09
1/
#6500
1"
18
19
0/
0_
0`
0N
1A
1@
0?
1:
0-
0.
1S
0Q
0O
0C
1B
0@
1D
1R
0F
1E
1I
1G
0K
1J
1L
#7000
0"
08
09
1/
#7500
1"
18
19
0/
1T
0P
1V
1U
17
0S
1W
1S
1&
1X
1%
#8000
0$
0"
0;
08
09
1/
0=
07
0S
#8500
1"
18
19
0/
0T
0>
0X
0V
0U
1Q
0%
0&
#9000
b1110 !
b1010 !
0"
0f
1e
08
09
1/
#9500
1"
18
19
0/
1]
1_
0H
0D
0R
1@
1+
1-
1N
1F
0E
0I
0G
1K
0J
0L
#10000
1$
0"
1;
08
09
1/
1=
16
1O
#10500
1"
18
19
0/
1>
1P
0W
06
#11000
0"
08
09
1/
#11500
1"
18
19
0/
0]
1^
1`
1D
1R
1C
0B
1?
0:
0+
1,
1.
0F
1E
0D
0R
0A
0@
1I
1G
1F
0E
1B
0K
1J
0I
0G
1L
1K
0J
0L
#12000
0"
08
09
1/
#12500
1"
18
19
0/
0_
0`
1A
1@
0?
1:
0-
0.
0B
0@
#13000
0$
0"
0;
08
09
1/
#13500
1"
18
19
0/
0^
1`
1H
0C
1B
1?
0:
0,
1.
0N
1D
1R
1@
1S
0Q
0O
0F
1E
1I
1G
0K
1J
1L
#14000
0"
08
09
1/
#14500
1"
18
19
0/
1T
0P
1U
0S
0=
1&
#15000
0"
08
09
1/
#15500
1"
18
19
0/
0T
0>
0U
1W
1Q
0&
#16000
b10 !
0"
0e
08
09
1/
#16500
1"
18
19
0/
1_
0`
0A
0@
0?
1:
1-
0.
1C
0B
1A
1@
0D
0R
0C
1B
1F
0E
1D
1R
0I
0G
0F
1E
1K
0J
1I
1G
0L
0K
1J
1L
#17000
0"
08
09
1/
#17500
1"
18
19
0/
#18000
1$
0"
1;
08
09
1/
1=
16
1O
#18500
1"
18
19
0/
1>
1P
0W
0Q
06
1S
0O
#19000
0"
08
09
1/
#19500
1"
18
19
0/
1T
0P
1U
17
0S
1S
1&
#20000
0$
0"
0;
08
09
1/
0=
07
0S
#20500
1"
18
19
0/
0T
0>
0U
1W
1Q
0&
#21000
0"
08
09
1/
#21500
1"
18
19
0/
#22000
b0 !
0"
0g
08
09
1/
#22500
1"
18
19
0/
0_
0@
0-
#23000
0"
08
09
1/
#23500
1"
18
19
0/
#24000
1$
0"
1;
08
09
1/
1=
16
1O
#24500
1"
18
19
0/
1>
1P
0W
0Q
06
1S
0O
#25000
0"
08
09
1/
#25500
1"
18
19
0/
1T
0P
1V
1U
17
0S
1W
1S
1&
1X
1%
#26000
0"
08
09
1/
#26500
1"
18
19
0/
#27000
0"
08
09
1/
#27500
1"
18
19
0/
