final sample exam/simulation/qsim/divider.msim.vcd
$comment
	File created using the following command:
		vcd file divider.msim.vcd -direction
$end
$date
	Wed Nov 14 23:06:49 2018
$end
$version
	ModelSim Version 10.1d
$end
$timescale
	1ps
$end
$scope module divider_vlg_vec_tst $end
$var reg 8 ! A [7:0] $end
$var reg 1 " clk $end
$var reg 1 # rst $end
$var reg 1 $ s $end
$var wire 1 % Div3 $end
$var wire 1 & Done $end
$var wire 1 ' R [7] $end
$var wire 1 ( R [6] $end
$var wire 1 ) R [5] $end
$var wire 1 * R [4] $end
$var wire 1 + R [3] $end
$var wire 1 , R [2] $end
$var wire 1 - R [1] $end
$var wire 1 . R [0] $end
$var wire 1 / sampler $end
$scope module i1 $end
$var wire 1 0 gnd $end
$var wire 1 1 vcc $end
$var wire 1 2 unknown $end
$var tri1 1 3 devclrn $end
$var tri1 1 4 devpor $end
$var tri1 1 5 devoe $end
$var wire 1 6 Add0~12_combout $end
$var wire 1 7 curr.Q1~regout $end
$var wire 1 8 Selector1~0_combout $end
$var wire 1 9 Selector0~0_combout $end
$var wire 1 : s~combout $end
$var wire 1 ; clk~combout $end
$var wire 1 < clk~clkctrl_outclk $end
$var wire 1 = Add0~0_combout $end
$var wire 1 > Add0~1 $end
$var wire 1 ? Add0~3_combout $end
$var wire 1 @ Add0~5_combout $end
$var wire 1 A Ain[5]~3_combout $end
$var wire 1 B Add0~9 $end
$var wire 1 C Add0~11 $end
$var wire 1 D Add0~13 $end
$var wire 1 E Add0~14_combout $end
$var wire 1 F Ain[6]~4_combout $end
$var wire 1 G Add0~15 $end
$var wire 1 H Add0~16_combout $end
$var wire 1 I Ain[7]~5_combout $end
$var wire 1 J Div3~1_combout $end
$var wire 1 K Selector2~0_combout $end
$var wire 1 L Selector2~1_combout $end
$var wire 1 M rst~combout $end
$var wire 1 N rst~clkctrl_outclk $end
$var wire 1 O curr.Q3~regout $end
$var wire 1 P Selector1~1_combout $end
$var wire 1 Q curr.Q2~regout $end
$var wire 1 R Selector3~0_combout $end
$var wire 1 S Add0~4 $end
$var wire 1 T Add0~6_combout $end
$var wire 1 U Ain[2]~0_combout $end
$var wire 1 V Add0~7 $end
$var wire 1 W Add0~8_combout $end
$var wire 1 X Ain[3]~1_combout $end
$var wire 1 Y Div3~0_combout $end
$var wire 1 Z enSub~0_combout $end
$var wire 1 [ Add0~2_combout $end
$var wire 1 \ Add0~10_combout $end
$var wire 1 ] Ain[4]~2_combout $end
$var wire 1 ^ Div3~2_combout $end
$var wire 1 _ Div3~3_combout $end
$var wire 1 ` A~combout [7] $end
$var wire 1 a A~combout [6] $end
$var wire 1 b A~combout [5] $end
$var wire 1 c A~combout [4] $end
$var wire 1 d A~combout [3] $end
$var wire 1 e A~combout [2] $end
$var wire 1 f A~combout [1] $end
$var wire 1 g A~combout [0] $end
$var wire 1 h Ain [7] $end
$var wire 1 i Ain [6] $end
$var wire 1 j Ain [5] $end
$var wire 1 k Ain [4] $end
$var wire 1 l Ain [3] $end
$var wire 1 m Ain [2] $end
$var wire 1 n Ain [1] $end
$var wire 1 o Ain [0] $end
$upscope $end
$upscope $end
$enddefinitions $end
#0
$dumpvars
b0 !
0"
1#
0$
0%
0&
0.
0-
0,
0+
0*
0)
0(
0'
x/
00
11
x2
13
14
15
16
07
08
09
0:
0;
0<
1=
0>
0?
0@
0A
1B
0C
1D
1E
0F
0G
1H
0I
1J
0K
0L
1M
1N
0O
0P
0Q
0R
1S
1T
0U
0V
1W
0X
1Y
0Z
0[
1\
0]
1^
0_
0g
0f
0e
0d
0c
0b
0a
0`
0o
0n
0m
0l
0k
0j
0i
0h
$end
#500
1"
1;
1<
0/
#1000
0#
0"
0M
0;
0<
0N
1/
#1500
1"
1;
1<
0/
#2000
1#
0"
1M
0;
0<
1N
1/
#2500
1"
1;
1<
0/
#3000
b100 !
b110 !
0"
1f
1e
0;
0<
1/
1@
1U
#3500
1"
1;
1<
0/
1m
1n
0Y
1V
0T
0^
1?
1,
1-
0B
0W
1C
0\
0D
06
1G
0E
0H
#4000
1$
0"
1:
0;
0<
1/
19
18
1P
#4500
1"
1;
1<
0/
1Q
17
1Z
1L
08
1[
0U
0P
#5000
0"
0;
0<
1/
#5500
1"
1;
1<
0/
1o
0m
0Q
1O
1>
0=
0V
1T
0Z
1R
0L
1P
1.
0,
0S
0?
0[
1B
1W
1U
1V
0T
0C
1\
0B
0W
1D
16
1C
0\
0G
1E
0D
06
1H
1G
0E
0H
#6000
0"
0;
0<
1/
#6500
1"
1;
1<
0/
1Q
0O
1Z
0R
1L
0P
0U
0@
#7000
0"
0;
0<
1/
#7500
1"
1;
1<
0/
0o
0n
0Q
1O
1^
1Y
0>
1=
1S
1?
0Z
1R
0L
1P
0.
0-
1_
0P
1K
0?
0V
1T
1@
1U
1L
1B
1W
1%
1&
0C
1\
1D
16
0G
1E
1H
#8000
0$
0"
0:
0;
0<
1/
0L
09
#8500
1"
1;
1<
0/
0O
07
0_
0K
0R
0%
0&
#9000
b1110 !
b1010 !
0"
0e
1d
0;
0<
1/
0U
1X
#9500
1"
1;
1<
0/
1l
1n
0Y
0B
0W
0^
1?
1+
1-
1C
0\
0D
06
1G
0E
0H
#10000
1$
0"
1:
0;
0<
1/
19
18
1P
#10500
1"
1;
1<
0/
1Q
17
1Z
1L
08
1[
0X
1U
0P
#11000
0"
0;
0<
1/
#11500
1"
1;
1<
0/
1o
0l
1m
0Q
1O
1>
0=
1B
1W
1V
0T
0Z
1R
0L
1P
1.
0+
1,
0S
0?
0[
0C
1\
1X
0B
0W
0U
1T
1D
16
1C
0\
0G
1E
0D
06
1H
1G
0E
0H
#12000
0"
0;
0<
1/
#12500
1"
1;
1<
0/
1Q
0O
1Z
0R
1L
0P
0X
1U
0@
#13000
0$
0"
0:
0;
0<
1/
#13500
1"
1;
1<
0/
0o
0n
0Q
1O
1^
0>
1=
1S
1?
0Z
1R
0L
1P
0.
0-
0?
0T
1@
1X
0U
#14000
0"
0;
0<
1/
#14500
1"
1;
1<
0/
1Q
0O
1Z
0R
1L
0P
1[
0X
0@
#15000
0"
0;
0<
1/
#15500
1"
1;
1<
0/
1o
0m
0Q
1O
0^
1Y
1>
0=
0V
1T
0Z
1R
0L
1P
1.
0,
0P
1K
1?
0[
1B
1W
1X
1@
09
0C
1\
1&
1D
16
0G
1E
1H
#16000
b10 !
0"
0d
0;
0<
1/
0X
#16500
1"
1;
1<
0/
0O
07
0K
0R
0&
#17000
0"
0;
0<
1/
#17500
1"
1;
1<
0/
0o
1n
0>
1=
0S
0?
0.
1-
1S
1?
1V
0T
0V
1T
0B
0W
1B
1W
1C
0\
0C
1\
0D
06
1D
16
1G
0E
0G
1E
0H
1H
#18000
1$
0"
1:
0;
0<
1/
19
18
1P
#18500
1"
1;
1<
0/
1Q
17
1R
1L
08
0P
#19000
0"
0;
0<
1/
#19500
1"
1;
1<
0/
0Q
1O
0L
1K
1L
1&
#20000
0$
0"
0:
0;
0<
1/
0L
09
#20500
1"
1;
1<
0/
0O
07
0K
0R
0&
#21000
0"
0;
0<
1/
#21500
1"
1;
1<
0/
#22000
b0 !
0"
0f
0;
0<
1/
0@
#22500
1"
1;
1<
0/
0n
1^
0?
0-
#23000
0"
0;
0<
1/
#23500
1"
1;
1<
0/
#24000
0"
0;
0<
1/
#24500
1"
1;
1<
0/
#25000
0"
0;
0<
1/
#25500
1"
1;
1<
0/
#26000
0"
0;
0<
1/
#26500
1"
1;
1<
0/
#27000
0"
0;
0<
1/
#27500
1"
1;
1<
0/
