lab05/Part 1/simulation/qsim/part1.msim.vcd
$comment
	File created using the following command:
		vcd file part1.msim.vcd -direction
$end
$date
	Wed Aug 29 16:41:24 2018
$end
$version
	ModelSim Version 10.1d
$end
$timescale
	1ps
$end
$scope module part1_vlg_vec_tst $end
$var reg 1 ! CLK $end
$var reg 1 " CLR $end
$var reg 1 # En $end
$var wire 1 $ HEX0 [6] $end
$var wire 1 % HEX0 [5] $end
$var wire 1 & HEX0 [4] $end
$var wire 1 ' HEX0 [3] $end
$var wire 1 ( HEX0 [2] $end
$var wire 1 ) HEX0 [1] $end
$var wire 1 * HEX0 [0] $end
$var wire 1 + HEX1 [6] $end
$var wire 1 , HEX1 [5] $end
$var wire 1 - HEX1 [4] $end
$var wire 1 . HEX1 [3] $end
$var wire 1 / HEX1 [2] $end
$var wire 1 0 HEX1 [1] $end
$var wire 1 1 HEX1 [0] $end
$var wire 1 2 HEX2 [6] $end
$var wire 1 3 HEX2 [5] $end
$var wire 1 4 HEX2 [4] $end
$var wire 1 5 HEX2 [3] $end
$var wire 1 6 HEX2 [2] $end
$var wire 1 7 HEX2 [1] $end
$var wire 1 8 HEX2 [0] $end
$var wire 1 9 HEX3 [6] $end
$var wire 1 : HEX3 [5] $end
$var wire 1 ; HEX3 [4] $end
$var wire 1 < HEX3 [3] $end
$var wire 1 = HEX3 [2] $end
$var wire 1 > HEX3 [1] $end
$var wire 1 ? HEX3 [0] $end
$var wire 1 @ LEDG [7] $end
$var wire 1 A LEDG [6] $end
$var wire 1 B LEDG [5] $end
$var wire 1 C LEDG [4] $end
$var wire 1 D LEDG [3] $end
$var wire 1 E LEDG [2] $end
$var wire 1 F LEDG [1] $end
$var wire 1 G LEDG [0] $end
$var wire 1 H sampler $end
$scope module i1 $end
$var wire 1 I gnd $end
$var wire 1 J vcc $end
$var wire 1 K unknown $end
$var tri1 1 L devclrn $end
$var tri1 1 M devpor $end
$var tri1 1 N devoe $end
$var wire 1 O CLK~combout $end
$var wire 1 P En~combout $end
$var wire 1 Q STAGE1|TMP~0_combout $end
$var wire 1 R CLR~combout $end
$var wire 1 S CLR~clkctrl_outclk $end
$var wire 1 T STAGE1|TMP~regout $end
$var wire 1 U STAGE2|TMP~0_combout $end
$var wire 1 V STAGE2|TMP~regout $end
$var wire 1 W STAGE3|TMP~0_combout $end
$var wire 1 X STAGE3|TMP~regout $end
$var wire 1 Y C3~combout $end
$var wire 1 Z STAGE4|TMP~0_combout $end
$var wire 1 [ STAGE4|TMP~regout $end
$var wire 1 \ STAGE5|TMP~0_combout $end
$var wire 1 ] STAGE5|TMP~regout $end
$var wire 1 ^ STAGE6|TMP~0_combout $end
$var wire 1 _ STAGE6|TMP~regout $end
$var wire 1 ` STAGE7|TMP~0_combout $end
$var wire 1 a STAGE7|TMP~1_combout $end
$var wire 1 b STAGE7|TMP~regout $end
$var wire 1 c STAGE8|TMP~0_combout $end
$var wire 1 d STAGE8|TMP~1_combout $end
$var wire 1 e STAGE8|TMP~regout $end
$var wire 1 f STAGE9|Mux6~0_combout $end
$var wire 1 g STAGE9|Mux5~0_combout $end
$var wire 1 h STAGE9|Mux4~0_combout $end
$var wire 1 i STAGE9|Mux3~0_combout $end
$var wire 1 j STAGE9|Mux2~0_combout $end
$var wire 1 k STAGE9|Mux1~0_combout $end
$var wire 1 l STAGE9|Mux0~0_combout $end
$var wire 1 m STAGE10|Mux6~0_combout $end
$var wire 1 n STAGE10|Mux5~0_combout $end
$var wire 1 o STAGE10|Mux4~0_combout $end
$var wire 1 p STAGE10|Mux3~0_combout $end
$var wire 1 q STAGE10|Mux2~0_combout $end
$var wire 1 r STAGE10|Mux1~0_combout $end
$var wire 1 s STAGE10|Mux0~0_combout $end
$upscope $end
$upscope $end
$enddefinitions $end
#0
$dumpvars
0!
x"
1#
x*
x)
x(
x'
x&
x%
x$
x1
x0
x/
x.
x-
x,
x+
18
17
16
15
14
13
12
1?
1>
1=
1<
1;
1:
19
xG
xF
xE
xD
xC
xB
xA
x@
xH
0I
1J
xK
1L
1M
1N
0O
1P
xQ
xR
xS
xT
xU
xV
xW
xX
xY
xZ
x[
x\
x]
x^
x_
x`
xa
xb
xc
xd
xe
xf
xg
xh
xi
xj
xk
xl
xm
xn
xo
xp
xq
xr
xs
$end
#243
0T
0V
0X
0[
0]
0_
0b
0e
#779
0Y
#952
1`
#1032
0W
#1036
0U
#1137
1c
#1174
0\
#1180
0d
#1189
0^
#1288
0Z
#1353
1Q
#1412
0a
#3131
0f
#3139
0j
0g
#3501
0n
#3502
0s
#3509
0m
#3515
0q
#3731
0i
#3742
0r
#3746
0o
#3747
0p
#3954
0k
#3964
0l
#3966
0h
#4027
0@
#4028
0D
#4056
0G
#4245
0E
#4260
0A
#4267
0F
#4388
0B
#4609
0C
#8448
0*
#8706
01
#8725
1+
#8820
0)
#8904
0'
#9178
0&
#9383
0.
#9413
0/
#9513
00
#9546
0-
#9632
0(
#9842
0,
#9894
0%
#10081
1$
#20000
1!
0H
#20864
1O
#22517
1T
#22875
0Q
#23310
1U
#25405
1f
#25412
1k
1i
#25413
1j
#26330
1G
#30585
1'
#30722
1*
#31352
1%
#31452
1&
#40000
0!
1H
#40864
0O
#60000
1!
0H
#60864
1O
#62517
0T
1V
#62875
0U
1Q
#63310
1U
#65405
0f
#65412
0k
0i
#65413
0j
#66228
1k
#66238
1l
#66240
1h
#66330
0G
#66541
1F
#70585
0'
#70722
0*
#71452
0&
#71906
1(
#72355
0$
#80000
0!
1H
#80864
0O
#100000
1!
0H
#100864
1O
#102517
1T
#102875
0Q
#103306
1W
#103310
0U
#105404
0h
#105413
1j
#106330
1G
#111070
0(
#111452
1&
#120000
0!
1H
#120864
0O
#140000
1!
0H
#140864
1O
#142517
0T
0V
1X
#142875
0W
1U
1Q
#143306
1W
#143310
0U
#145412
0k
#145413
0j
1g
#146198
1j
#146202
1f
#146234
0g
#146235
1i
#146330
0G
#146519
1E
#146541
0F
#151352
0%
#151408
1'
#151519
1*
#160000
0!
1H
#160864
0O
#180000
1!
0H
#180864
1O
#182517
1T
#182875
0Q
#183310
1U
#185405
0f
#185412
0i
#185413
1g
#186330
1G
#190585
0'
#190722
0*
#191094
1)
#200000
0!
1H
#200864
0O
#220000
1!
0H
#220864
1O
#222517
0T
1V
#222875
0U
1Q
#223310
1U
#225405
1f
#225412
1i
#225413
0g
#226198
0j
#226202
0f
#226234
1g
#226235
0i
#226330
0G
#226541
1F
#232237
0&
#240000
0!
1H
#240864
0O
#260000
1!
0H
#260864
1O
#262517
1T
#262875
0Q
#263209
1Y
#263306
0W
#263310
0U
#263718
1Z
#265408
0l
#265412
1k
1i
#265413
1j
0g
#266330
1G
#270585
1'
#271094
0)
#271352
1%
#271452
1&
#271525
1$
#280000
0!
1H
#280864
0O
#300000
1!
0H
#300864
1O
#302517
0T
0V
0X
1[
#302875
0Z
1W
1U
1Q
#303053
0Y
#303306
0W
#303310
0U
#303562
1Z
#305404
1h
#305413
0j
#305518
1l
#305978
0k
#306007
0h
#306235
0i
#306302
1D
#306330
0G
#306519
0E
#306541
0F
#311408
0'
#311452
0&
#311635
0$
#311918
0%
#320000
0!
1H
#320864
0O
#340000
1!
0H
#340864
1O
#342517
1T
#342875
0Q
#343310
1U
#345413
1j
#346330
1G
#351452
1&
#360000
0!
1H
#360864
0O
#380000
1!
0H
#380864
1O
#382517
0T
1V
#382875
0U
1Q
#383310
1U
#385413
0j
#386235
1i
#386330
0G
#386541
1F
#391408
1'
#391452
0&
#400000
0!
1H
#400864
0O
#420000
1!
0H
#420864
1O
#422517
1T
#422875
0Q
#423306
1W
#423310
0U
#425405
1f
#425412
0i
#425413
1g
#426330
1G
#430585
0'
#430722
1*
#431094
1)
#440000
0!
1H
#440864
0O
#460000
1!
0H
#460864
1O
#462517
0T
0V
1X
#462875
0W
1U
1Q
#463306
1W
#463310
0U
#465521
0f
#465522
1h
#466238
0l
#466330
0G
#466519
1E
#466541
0F
#470838
0*
#471188
1(
#472355
1$
#480000
0!
1H
#480864
0O
#500000
1!
0H
#500864
1O
#502517
1T
#502875
0Q
#503310
1U
#505404
0h
#505405
1f
#505408
1l
#505412
1k
#505413
0g
#506330
1G
#510722
1*
#511070
0(
#511094
0)
#511352
1%
#511525
0$
#520000
0!
1H
#520864
0O
